{
    "face": [
        "eyes", "eyebrows", "ears", "nose", "mouth", "blush", "mole", "scars", "tattoos"
    ],
    "hair": ["hairFront", "hairBack", "hairFrontExtra", "hairBackExtra", "hairFacial"],
    "clothes": ["shirt", "collar", "outer", "tie", "vest", "scarf"],
    "accessories": [
        "backacc", "headacc", "glasses", "eyeacc", "mouthacc", "earringL", "earringR",
        "necklace"
    ]
}